{
	"id": "a2316d4b-377b-4887-a4bc-929dfe40401d",
	"name": "Local",
	"values": [
		{
			"key": "baseUrl",
			"value": "http://localhost:4000/api-peru/v1",
			"enabled": true
		},
		{
			"key": "id",
			"value": "",
			"enabled": true
		}
	],
	"_postman_variable_scope": "environment",
	"_postman_exported_at": "2020-04-16T17:20:30.981Z",
	"_postman_exported_using": "Postman/7.22.1"
}